<?xml version="1.0" encoding="UTF-8"?>
<glyph name="F" format="1">
  <advance width="665"/>
  <unicode hex="0046"/>
  <outline>
    <contour>
      <point x="91" y="1615" type="curve" smooth="yes"/>
      <point x="92" y="1616"/>
      <point x="166" y="1616"/>
      <point x="255" y="1616" type="curve" smooth="yes"/>
      <point x="428" y="1616"/>
      <point x="426" y="1616"/>
      <point x="442" y="1611" type="curve" smooth="yes"/>
      <point x="449" y="1608"/>
      <point x="455" y="1604"/>
      <point x="455" y="1601" type="curve" smooth="yes"/>
      <point x="455" y="1597"/>
      <point x="449" y="1593"/>
      <point x="442" y="1590" type="curve" smooth="yes"/>
      <point x="427" y="1585"/>
      <point x="425" y="1585"/>
      <point x="286" y="1585" type="curve" smooth="yes"/>
      <point x="156" y="1585" type="line"/>
      <point x="156" y="1143" type="line"/>
      <point x="156" y="701" type="line"/>
      <point x="253" y="701" type="line"/>
      <point x="359" y="700"/>
      <point x="357" y="700"/>
      <point x="371" y="695" type="curve" smooth="yes"/>
      <point x="376" y="693"/>
      <point x="381" y="688"/>
      <point x="381" y="686" type="curve" smooth="yes"/>
      <point x="381" y="683"/>
      <point x="376" y="678"/>
      <point x="371" y="676" type="curve" smooth="yes"/>
      <point x="357" y="671"/>
      <point x="359" y="671"/>
      <point x="253" y="670" type="curve"/>
      <point x="156" y="670" type="line"/>
      <point x="156" y="334" type="line" smooth="yes"/>
      <point x="156" y="31"/>
      <point x="156" y="-2"/>
      <point x="154" y="-4" type="curve" smooth="yes"/>
      <point x="152" y="-7"/>
      <point x="147" y="-9"/>
      <point x="137" y="-12" type="curve" smooth="yes"/>
      <point x="127" y="-15"/>
      <point x="98" y="-16"/>
      <point x="85" y="-14" type="curve" smooth="yes"/>
      <point x="73" y="-12"/>
      <point x="61" y="-8"/>
      <point x="58" y="-5" type="curve" smooth="yes"/>
      <point x="55" y="-2" type="line"/>
      <point x="55" y="800" type="line"/>
      <point x="55" y="1603" type="line"/>
      <point x="58" y="1606" type="line" smooth="yes"/>
      <point x="63" y="1610"/>
      <point x="75" y="1613"/>
    </contour>
  </outline>
</glyph>
